{
  "key": {
    "algo": "rsa",
    "size": 4096
  },
  "names": [
    {
      "O": "Enda",
      "OU": "tech",
      "L": "Tunis",
      "ST": "",
      "C": "TUNISIA"
    }
  ],
  "CN": "etcd02",
  "hosts": [
    "127.0.0.1",
    "localhost",
    "10.1.11.12"
  ]
}
